-------------------------------------------------------------------------------
Test set: RenameFiles.UtilitiesTest
-------------------------------------------------------------------------------
Tests run: 6, Failures: 0, Errors: 0, Skipped: 0, Time elapsed: 0.002 s - in RenameFiles.UtilitiesTest
