<?xml version="1.0" encoding="UTF-8"?>
<testsuite xmlns:xsi="http://www.w3.org/2001/XMLSchema-instance" xsi:noNamespaceSchemaLocation="https://maven.apache.org/surefire/maven-surefire-plugin/xsd/surefire-test-report.xsd" name="RenameFiles.RenameFilesTest" time="0.13" tests="11" errors="0" skipped="0" failures="0">
  <properties>
    <property name="sun.desktop" value="gnome"/>
    <property name="awt.toolkit" value="sun.awt.X11.XToolkit"/>
    <property name="java.specification.version" value="11"/>
    <property name="sun.cpu.isalist" value=""/>
    <property name="sun.jnu.encoding" value="UTF-8"/>
    <property name="java.class.path" value="/home/nicolas/Escritorio/proyectosMaven/RenameFiles/target/test-classes:/home/nicolas/Escritorio/proyectosMaven/RenameFiles/target/classes:/home/nicolas/.m2/repository/junit/junit/4.11/junit-4.11.jar:/home/nicolas/.m2/repository/org/hamcrest/hamcrest-core/1.3/hamcrest-core-1.3.jar:"/>
    <property name="java.vm.vendor" value="Ubuntu"/>
    <property name="sun.arch.data.model" value="64"/>
    <property name="java.vendor.url" value="https://ubuntu.com/"/>
    <property name="user.timezone" value=""/>
    <property name="java.vm.specification.version" value="11"/>
    <property name="os.name" value="Linux"/>
    <property name="sun.java.launcher" value="SUN_STANDARD"/>
    <property name="user.country" value="AR"/>
    <property name="sun.boot.library.path" value="/usr/lib/jvm/java-11-openjdk-amd64/lib"/>
    <property name="sun.java.command" value="/home/nicolas/Escritorio/proyectosMaven/RenameFiles/target/surefire/surefirebooter8080017572025027966.jar /home/nicolas/Escritorio/proyectosMaven/RenameFiles/target/surefire 2019-12-15T09-40-58_657-jvmRun1 surefire15502976688804738206tmp surefire_010095006883730156419tmp"/>
    <property name="jdk.debug" value="release"/>
    <property name="surefire.test.class.path" value="/home/nicolas/Escritorio/proyectosMaven/RenameFiles/target/test-classes:/home/nicolas/Escritorio/proyectosMaven/RenameFiles/target/classes:/home/nicolas/.m2/repository/junit/junit/4.11/junit-4.11.jar:/home/nicolas/.m2/repository/org/hamcrest/hamcrest-core/1.3/hamcrest-core-1.3.jar:"/>
    <property name="sun.cpu.endian" value="little"/>
    <property name="user.home" value="/home/nicolas"/>
    <property name="user.language" value="es"/>
    <property name="java.specification.vendor" value="Oracle Corporation"/>
    <property name="java.version.date" value="2019-07-16"/>
    <property name="java.home" value="/usr/lib/jvm/java-11-openjdk-amd64"/>
    <property name="file.separator" value="/"/>
    <property name="basedir" value="/home/nicolas/Escritorio/proyectosMaven/RenameFiles"/>
    <property name="java.vm.compressedOopsMode" value="32-bit"/>
    <property name="line.separator" value="&#10;"/>
    <property name="java.specification.name" value="Java Platform API Specification"/>
    <property name="java.vm.specification.vendor" value="Oracle Corporation"/>
    <property name="java.awt.graphicsenv" value="sun.awt.X11GraphicsEnvironment"/>
    <property name="surefire.real.class.path" value="/home/nicolas/Escritorio/proyectosMaven/RenameFiles/target/surefire/surefirebooter8080017572025027966.jar"/>
    <property name="sun.management.compiler" value="HotSpot 64-Bit Tiered Compilers"/>
    <property name="java.runtime.version" value="11.0.4+11-post-Ubuntu-1ubuntu218.04.3"/>
    <property name="user.name" value="nicolas"/>
    <property name="path.separator" value=":"/>
    <property name="os.version" value="5.0.0-37-generic"/>
    <property name="java.runtime.name" value="OpenJDK Runtime Environment"/>
    <property name="file.encoding" value="UTF-8"/>
    <property name="java.vm.name" value="OpenJDK 64-Bit Server VM"/>
    <property name="localRepository" value="/home/nicolas/.m2/repository"/>
    <property name="java.vendor.url.bug" value="https://bugs.launchpad.net/ubuntu/+source/openjdk-lts"/>
    <property name="java.io.tmpdir" value="/tmp"/>
    <property name="java.version" value="11.0.4"/>
    <property name="user.dir" value="/home/nicolas/Escritorio/proyectosMaven/RenameFiles"/>
    <property name="os.arch" value="amd64"/>
    <property name="java.vm.specification.name" value="Java Virtual Machine Specification"/>
    <property name="java.awt.printerjob" value="sun.print.PSPrinterJob"/>
    <property name="sun.os.patch.level" value="unknown"/>
    <property name="java.library.path" value="/usr/java/packages/lib:/usr/lib/x86_64-linux-gnu/jni:/lib/x86_64-linux-gnu:/usr/lib/x86_64-linux-gnu:/usr/lib/jni:/lib:/usr/lib"/>
    <property name="java.vendor" value="Ubuntu"/>
    <property name="java.vm.info" value="mixed mode, sharing"/>
    <property name="java.vm.version" value="11.0.4+11-post-Ubuntu-1ubuntu218.04.3"/>
    <property name="sun.io.unicode.encoding" value="UnicodeLittle"/>
    <property name="java.class.version" value="55.0"/>
  </properties>
  <testcase name="getNewNameCustomTest1" classname="RenameFiles.RenameFilesTest" time="0.006"/>
  <testcase name="getNewNameCustomTest2" classname="RenameFiles.RenameFilesTest" time="0"/>
  <testcase name="getNewNameCustomTest3" classname="RenameFiles.RenameFilesTest" time="0"/>
  <testcase name="getNewNameCustomTest4" classname="RenameFiles.RenameFilesTest" time="0.002"/>
  <testcase name="getNewNameCustomTest5" classname="RenameFiles.RenameFilesTest" time="0.002"/>
  <testcase name="getNewNameCustomTest6" classname="RenameFiles.RenameFilesTest" time="0.002"/>
  <testcase name="getNewNameCustomTest7" classname="RenameFiles.RenameFilesTest" time="0.002"/>
  <testcase name="getNewNameCustomTest8" classname="RenameFiles.RenameFilesTest" time="0.002"/>
  <testcase name="getNewNameCustomTest9" classname="RenameFiles.RenameFilesTest" time="0.002"/>
  <testcase name="getNewNameCustomTest10" classname="RenameFiles.RenameFilesTest" time="0.002"/>
  <testcase name="getNewFileTest" classname="RenameFiles.RenameFilesTest" time="0.002"/>
</testsuite>