/home/nicolas/Escritorio/proyectosMaven/RenameFiles/src/main/java/RenameFiles/Alerts.java
/home/nicolas/Escritorio/proyectosMaven/RenameFiles/src/main/java/RenameFiles/RenameFiles.java
/home/nicolas/Escritorio/proyectosMaven/RenameFiles/src/main/java/RenameFiles/AnswerAsker.java
/home/nicolas/Escritorio/proyectosMaven/RenameFiles/src/main/java/RenameFiles/Utilities.java
